{
  "images" : [
    {
      "idiom" : "universal",
      "filename" : "button_register.pdf",
      "resizing" : {
        "mode" : "3-part-horizontal",
        "center" : {
          "mode" : "tile",
          "width" : 1
        },
        "cap-insets" : {
          "right" : 22,
          "left" : 22
        }
      }
    }
  ],
  "info" : {
    "version" : 1,
    "author" : "xcode"
  }
}